<svg xmlns="http://www.w3.org/2000/svg" xmlns:xlink="http://www.w3.org/1999/xlink" width="0" height="0" style="display:none;" class="icons-definition">
  <symbol id="icon-category" viewBox="0 0 24 24">
    <g>
        <path fill="none" d="M0 0h24v24H0z"/>
        <path d="M3 7l8.445-5.63a1 1 0 0 1 1.11 0L21 7v14a1 1 0 0 1-1 1H4a1 1 0 0 1-1-1V7zm2 1.07V20h14V8.07l-7-4.666L5 8.07zM12 11a2 2 0 1 1 0-4 2 2 0 0 1 0 4z"/>
    </g>
  </symbol>
  <symbol id="icon-container" viewBox="0 0 24 24">
    <g>
        <path fill="none" d="M0 0h24v24H0z"/>
        <path d="M4 3h16l2 4v13a1 1 0 01-1 1H3a1 1 0 01-1-1V7.004zm16 6H4v10h16zm-.236-2l-1-2H5.237l-1 2z"/>
    </g>
  </symbol>
  <symbol id="icon-group" viewBox="0 0 24 24">
    <g>
        <path fill="none" d="M0 0h24v24H0z"/>
        <path d="M2 22a8 8 0 1 1 16 0h-2a6 6 0 1 0-12 0H2zm8-9c-3.315 0-6-2.685-6-6s2.685-6 6-6 6 2.685 6 6-2.685 6-6 6zm0-2c2.21 0 4-1.79 4-4s-1.79-4-4-4-4 1.79-4 4 1.79 4 4 4zm8.284 3.703A8.002 8.002 0 0 1 23 22h-2a6.001 6.001 0 0 0-3.537-5.473l.82-1.824zm-.688-11.29A5.5 5.5 0 0 1 21 8.5a5.499 5.499 0 0 1-5 5.478v-2.013a3.5 3.5 0 0 0 1.041-6.609l.555-1.943z"/>
    </g>
  </symbol>
  <symbol id="icon-item" viewBox="0 0 24 24">
    <g>
    <path d="M11.943.707l-.011.002a.958.958 0 00-.826.598l-.649 1.09-.717-1.21a.958.958 0 00-1.646 0L7.35 2.44l-.81-1.278A.958.958 0 005.73.72c-1.675 0-3.17 1.37-3.05 3.117l.178 2.986a663.987 663.987 0 00-.856 4.479.926.926 0 00-.008.066v.008a.948.948 0 000 .16v.008c.003.035.007.07.014.104l.877 4.437-.205 2.987c-.12 1.747 1.375 3.117 3.05 3.117a.958.958 0 00.809-.444l.809-1.277.746 1.254a.958.958 0 001.646 0l.717-1.209.654 1.102a.958.958 0 00.832.584.954.954 0 00.03.002c.032 0 .063 0 .095-.002a.958.958 0 00.825-.594l.65-1.092.717 1.209a.958.958 0 001.646 0l.746-1.254.809 1.277a.958.958 0 00.81.446c1.676 0 3.17-1.372 3.05-3.12l-.18-2.985c.036-.13.851-4.438.851-4.438a1.13 1.13 0 00.014-.108v-.007a.92.92 0 000-.157v-.011a.962.962 0 00-.014-.104l-.877-4.437.205-2.987C21.44 2.088 19.947.72 18.271.72a.958.958 0 00-.81.443l-.81 1.278-.745-1.252a.958.958 0 00-1.646 0l-.717 1.209-.645-1.086a.958.958 0 00-.87-.604.958.958 0 00-.085 0zm6.75 2.092c.415.17.744.485.715.906l-.213 3.114a.956.956 0 00.016.25l.867 4.384-.707 3.573-8.273.01c-1.353-.017-1.349 2.021.004 2l8.158-.01.148 2.177c.03.422-.3.734-.715.905l-1.26-1.985a.958.958 0 00-1.632.024l-.719 1.209-.717-1.21a.958.958 0 00-1.646 0L12 19.357l-.719-1.21a.958.958 0 00-1.646 0l-.717 1.21-.719-1.21a.958.958 0 00-1.633-.023l-1.26 1.983c-.413-.17-.743-.481-.714-.903l.213-3.113a.96.96 0 00-.016-.252l-.865-4.385.705-3.572 8.273-.01c1.353.018 1.35-2.02-.002-2l-8.16.01-.148-2.176c-.03-.42.3-.733.715-.904l1.26 1.982a.958.958 0 001.632-.023l.719-1.209.717 1.209a.958.958 0 001.646 0L12 3.551l.719 1.209a.958.958 0 001.646 0l.717-1.209.719 1.209a.958.958 0 001.633.023zM3.906 11.383l.006.07-.006.06a.97.97 0 000-.13zm16.188.037l-.002.037-.002-.004z"/>
  </g>
  </symbol>
  <symbol id="icon-shopping-list" viewBox="0 0 24 24">
    <g>
        <path fill="none" d="M0 0h24v24H0z"/>
        <path d="M4 16V4H2V2h3a1 1 0 0 1 1 1v12h12.438l2-8H8V5h13.72a1 1 0 0 1 .97 1.243l-2.5 10a1 1 0 0 1-.97.757H5a1 1 0 0 1-1-1zm2 7a2 2 0 1 1 0-4 2 2 0 0 1 0 4zm12 0a2 2 0 1 1 0-4 2 2 0 0 1 0 4z"/>
    </g>
  </symbol>
  <symbol id="icon-account" viewBox="0 0 24 24">
    <g>
        <path fill="none" d="M0 0h24v24H0z"/>
        <path d="M3 4.995C3 3.893 3.893 3 4.995 3h14.01C20.107 3 21 3.893 21 4.995v14.01A1.995 1.995 0 0 1 19.005 21H4.995A1.995 1.995 0 0 1 3 19.005V4.995zM5 5v14h14V5H5zm2.972 13.18a9.983 9.983 0 0 1-1.751-.978A6.994 6.994 0 0 1 12.102 14c2.4 0 4.517 1.207 5.778 3.047a9.995 9.995 0 0 1-1.724 1.025A4.993 4.993 0 0 0 12.102 16c-1.715 0-3.23.864-4.13 2.18zM12 13a3.5 3.5 0 1 1 0-7 3.5 3.5 0 0 1 0 7zm0-2a1.5 1.5 0 1 0 0-3 1.5 1.5 0 0 0 0 3z"/>
    </g>
  </symbol>
  <symbol id="icon-checkmark" viewBox="0 0 24 24">
    <g>
        <path fill="none" d="M0 0h24v24H0z"/>
        <path d="M10 15.172l9.192-9.193 1.415 1.414L10 18l-6.364-6.364 1.414-1.414z"/>
    </g>
  </symbol>
  <symbol id="icon-close" viewBox="0 0 24 24">
    <g>
        <path fill="none" d="M0 0h24v24H0z"/>
        <path d="M12 10.586l4.95-4.95 1.414 1.414-4.95 4.95 4.95 4.95-1.414 1.414-4.95-4.95-4.95 4.95-1.414-1.414 4.95-4.95-4.95-4.95L7.05 5.636z"/>
    </g>
  </symbol>
  <symbol id="icon-error" viewBox="0 0 24 24">
    <g>
        <path fill="none" d="M0 0h24v24H0z"/>
        <path d="M12 22C6.477 22 2 17.523 2 12S6.477 2 12 2s10 4.477 10 10-4.477 10-10 10zm0-2a8 8 0 1 0 0-16 8 8 0 0 0 0 16zm-1-5h2v2h-2v-2zm0-8h2v6h-2V7z"/>
    </g>
  </symbol>
  <symbol id="icon-logout" viewBox="0 0 24 24">
    <g>
        <path fill="none" d="M0 0h24v24H0z"/>
        <path d="M4 18h2v2h12V4H6v2H4V3a1 1 0 0 1 1-1h14a1 1 0 0 1 1 1v18a1 1 0 0 1-1 1H5a1 1 0 0 1-1-1v-3zm2-7h7v2H6v3l-5-4 5-4v3z"/>
    </g>
  </symbol>
  <symbol id="icon-more" viewBox="0 0 24 24">
    <g>
        <path fill="none" d="M0 0h24v24H0z"/>
        <path d="M4.5 10.5c-.825 0-1.5.675-1.5 1.5s.675 1.5 1.5 1.5S6 12.825 6 12s-.675-1.5-1.5-1.5zm15 0c-.825 0-1.5.675-1.5 1.5s.675 1.5 1.5 1.5S21 12.825 21 12s-.675-1.5-1.5-1.5zm-7.5 0c-.825 0-1.5.675-1.5 1.5s.675 1.5 1.5 1.5 1.5-.675 1.5-1.5-.675-1.5-1.5-1.5z"/>
    </g>
  </symbol>
  <symbol id="icon-labs" viewBox="0 0 24 24">
    <g>
    <path fill="none" d="M0 0h24v24H0z"/>
    <path d="M10.133 2.13c-.573 0-1.113.38-1.363.785-.25.406-.329.829-.338 1.258-.016.712.236 1.46.685 2.144v3.356c-2.108 1.061-3.564 3.24-3.564 5.752 0 3.548 2.899 6.445 6.447 6.445s6.447-2.897 6.447-6.445c0-2.513-1.458-4.691-3.568-5.752V6.32c.45-.685.703-1.435.687-2.148-.009-.43-.087-.852-.337-1.258s-.791-.785-1.364-.785zm.336 2.031h3.06c.005.031.007.017.008.057.007.33-.146.862-.44 1.2-.16.185-.247.421-.247.665v5.01a4.397 4.397 0 013.566 4.332A4.4 4.4 0 0112 19.84a4.4 4.4 0 01-4.416-4.416 4.398 4.398 0 013.564-4.332v-5.01c0-.244-.088-.48-.248-.664a1.995 1.995 0 01-.44-1.201c.002-.04.004-.026.009-.057z"/>
    <path d="M10.125 15.708c-.702 0-1.281.58-1.281 1.281 0 .702.58 1.282 1.281 1.282.702 0 1.281-.58 1.281-1.282 0-.701-.58-1.281-1.281-1.281z"/>
  </g>
  </symbol>
  <symbol id="icon-user-add" viewBox="0 0 24 24">
    <g>
        <path fill="none" d="M0 0h24v24H0z"/>
        <path d="M14 14.252v2.09A6 6 0 0 0 6 22l-2-.001a8 8 0 0 1 10-7.748zM12 13c-3.315 0-6-2.685-6-6s2.685-6 6-6 6 2.685 6 6-2.685 6-6 6zm0-2c2.21 0 4-1.79 4-4s-1.79-4-4-4-4 1.79-4 4 1.79 4 4 4zm6 6v-3h2v3h3v2h-3v3h-2v-3h-3v-2h3z"/>
    </g>
  </symbol>
  <symbol id="icon-user-ok" viewBox="0 0 24 24">
    <g>
        <path fill="none" d="M0 0h24v24H0z"/>
        <path d="M14 14.252v2.09A6 6 0 0 0 6 22l-2-.001a8 8 0 0 1 10-7.748zM12 13c-3.315 0-6-2.685-6-6s2.685-6 6-6 6 2.685 6 6-2.685 6-6 6zm0-2c2.21 0 4-1.79 4-4s-1.79-4-4-4-4 1.79-4 4 1.79 4 4 4zm5.793 8.914l3.535-3.535 1.415 1.414-4.95 4.95-3.536-3.536 1.415-1.414 2.12 2.121z"/>
    </g>
  </symbol>
  <symbol id="icon-empty" viewBox="0 0 24 24">
    <g>
        <path fill="none" d="M0 0h24v24H0z"/>
        <path d="M10.5 17H4v-2h6.5a3.5 3.5 0 1 1-3.278 4.73l1.873-.703A1.5 1.5 0 1 0 10.5 17zM5 11h13.5a3.5 3.5 0 1 1-3.278 4.73l1.873-.703A1.5 1.5 0 1 0 18.5 13H5a3 3 0 0 1 0-6h8.5a1.5 1.5 0 1 0-1.405-2.027l-1.873-.702A3.501 3.501 0 0 1 17 5.5 3.5 3.5 0 0 1 13.5 9H5a1 1 0 1 0 0 2z"/>
    </g>
  </symbol>
  <symbol id="icon-loading" viewBox="0 0 24 24">
    <g>
        <path fill="none" d="M0 0h24v24H0z"/>
        <path d="M5.463 4.433A9.961 9.961 0 0 1 12 2c5.523 0 10 4.477 10 10 0 2.136-.67 4.116-1.81 5.74L17 12h3A8 8 0 0 0 6.46 6.228l-.997-1.795zm13.074 15.134A9.961 9.961 0 0 1 12 22C6.477 22 2 17.523 2 12c0-2.136.67-4.116 1.81-5.74L7 12H4a8 8 0 0 0 13.54 5.772l.997 1.795z"/>
    </g>
  </symbol>
  <symbol id="icon-add" viewBox="0 0 24 24">
    <g>
        <path fill="none" d="M0 0h24v24H0z"/>
        <path d="M11 11V5h2v6h6v2h-6v6h-2v-6H5v-2z"/>
    </g>
  </symbol>
  <symbol id="icon-checkbox" viewBox="0 0 24 24">
    <g>
        <path fill="none" d="M0 0h24v24H0z"/>
        <path d="M4 3h16a1 1 0 0 1 1 1v16a1 1 0 0 1-1 1H4a1 1 0 0 1-1-1V4a1 1 0 0 1 1-1zm1 2v14h14V5H5z"/>
    </g>
  </symbol>
  <symbol id="icon-checkbox-checked" viewBox="0 0 24 24">
    <g>
        <path fill="none" d="M0 0h24v24H0z"/>
        <path d="M4 3h16a1 1 0 0 1 1 1v16a1 1 0 0 1-1 1H4a1 1 0 0 1-1-1V4a1 1 0 0 1 1-1zm1 2v14h14V5H5zm6.003 11L6.76 11.757l1.414-1.414 2.829 2.829 5.656-5.657 1.415 1.414L11.003 16z"/>
    </g>
  </symbol>
  <symbol id="icon-destroy" viewBox="0 0 24 24">
    <g>
        <path fill="none" d="M0 0h24v24H0z"/>
        <path d="M17 6h5v2h-2v13a1 1 0 0 1-1 1H5a1 1 0 0 1-1-1V8H2V6h5V3a1 1 0 0 1 1-1h8a1 1 0 0 1 1 1v3zm1 2H6v12h12V8zm-9 3h2v6H9v-6zm4 0h2v6h-2v-6zM9 4v2h6V4H9z"/>
    </g>
  </symbol>
  <symbol id="icon-edit" viewBox="0 0 24 24">
    <g>
        <path fill="none" d="M0 0h24v24H0z"/>
        <path d="M5 19h1.414l9.314-9.314-1.414-1.414L5 17.586V19zm16 2H3v-4.243L16.435 3.322a1 1 0 0 1 1.414 0l2.829 2.829a1 1 0 0 1 0 1.414L9.243 19H21v2zM15.728 6.858l1.414 1.414 1.414-1.414-1.414-1.414-1.414 1.414z"/>
    </g>
  </symbol>
  <symbol id="icon-remove" viewBox="0 0 24 24">
    <g>
        <path fill="none" d="M0 0h24v24H0z"/>
        <path d="M5 11h14v2H5z"/>
    </g>
  </symbol>
</svg>